<svg
    xmlns="http://www.w3.org/2000/svg"
    data-name="Layer 1"
    viewBox="0 0 512 512"
  >
    <path
      fill="#ccc"
      d="M376.86 255.48c9.74-31.08-18-35.84-24.05-36.51a17.69 17.69 0 00-1.93-.1H311a18.45 18.45 0 01-18.22-21.3c3.34-21.29-4.59-44.68-4.59-44.68s-.42-7.09-17.95-20c-8.92-6.58-17-4.85-22.73-1.56a18.19 18.19 0 00-9 15.85v35.93a8.25 8.25 0 01-.9 3.74l-39.14 76.63a18.49 18.49 0 00-1.42 7.11l.12 92.8c-2.26 13.22 27.59 17.55 33.3 18.26.6.07 1.19.11 1.79.13l69.3 1.65c53.24 2.47 59.41-14.54 57.38-26.49a18.65 18.65 0 015.69-17.13c7.74-6.9 8.44-15.57 7.52-21.94A18.11 18.11 0 01377 302.7c12.63-13.05 8.17-24.24 2.88-30.91a17.76 17.76 0 01-3.02-16.31zM172.06 255.51h-32.81c-6.85 0-12.45 5.24-12.45 11.63v99.79c0 6.4 5.6 11.63 12.45 11.63h32.81c6.84 0 12.44-5.23 12.44-11.63v-99.79c0-6.39-5.6-11.63-12.44-11.63z"
    />
  </svg>